[
    {
        "id" : 1,
        "name" : "Pizza",
        "price" : "150",
        "Taxgroup" : "",
        "category" : "",
         "type" : "general",
         "qty" : 1,
         "image" : "../../images/products/burger.jpg"
    },
    {
        "id" : 2,
        "name" : "Burger",
        "price" : "200",
        "Taxgroup" : "",
        "category" : "",
        "type" : "general",
        "qty" : 1,
        "image" : "burger"
    },
    {
        "id" : 3,
        "name" : "Coffee",
        "price" : "120",
        "Taxgroup" : "",
        "category" : "",
        "type" : "general",
        "qty" : 1,
        "image" : "coffee"
    },
    {
        "id" : 4,
        "name" : "Tea",
        "price" : "130",
        "Taxgroup" : "",
        "category" : "",
        "type" : "top",
        "qty" : 1,
        "image" : "tea"
    },
    {
        "id" : 5,
        "name" : "Cold Coffee",
        "price" : "170",
        "Taxgroup" : "",
        "category" : "",
         "type" : "top",
         "qty" : 1,
         "image" : "coldcoffee"
    },
    {
        "id" : 6,
        "name" : "Noodles",
        "price" : "150",
        "Taxgroup" : "",
        "category" : "",
        "type" : "top",
        "qty" : 1,
        "image" : "noodles"
    }
]